module go-config

go 1.14

require (
	github.com/niemeyer/pretty v0.0.0-20200227124842-a10e7caefd8e // indirect
	gopkg.in/check.v1 v1.0.0-20200227125254-8fa46927fb4f // indirect
	gopkg.in/yaml.v3 v3.0.0-20200313102051-9f266ea9e77c
)
